{
    "file": "pflow-variables.json",

    "jet" : {
        "ints": [
            "HadronConeExclTruthLabelPdgId",
            "HadronConeExclTruthLabelChildPdgId",
            "LeptonDecayLabel",
            "n_truth_promptLepton",
            "TauDecayLabel",
            "HadronGhostTruthLabelID",
            "HadronGhostExtendedTruthLabelID",
            "HadronGhostTruthLabelPdgId",
            "HadronGhostTruthLabelChildPdgId"
        ],
        "floats": [
            "HadronConeExclTruthLabelPt",
            "HadronConeExclTruthLabelLxy",
            "HadronConeExclTruthLabelDR",
            "HadronConeExclTruthLabelChildPt",
            "HadronConeExclTruthLabelChildLxy",
            "HadronGhostTruthLabelPt",
            "HadronGhostTruthLabelLxy",
            "HadronGhostTruthLabelDR",
            "HadronGhostTruthLabelChildPt",
            "HadronGhostTruthLabelChildLxy"
        ],
        "chars": [
            "isJvtPU",
            "isJvtHS"
        ]
    },
    "btagging" : {
        "chars": [
            "softMuon_isDefaults",
            "rnnip_isDefaults"
        ],
        "ints": [
            "JetFitterFlip_nVTX",
            "JetFitterFlip_nSingleTracks",
            "JetFitterFlip_nTracksAtVtx",
            "JetFitterFlip_N2Tpair",
            "IP3D_nTrks"
        ],
        "floats": [
            "SV1_correctSignificance3d",
            "softMuon_pt",
            "softMuon_dR",
            "softMuon_eta",
            "softMuon_phi",
            "softMuon_qOverPratio",
            "softMuon_momentumBalanceSignificance",
            "softMuon_scatteringNeighbourSignificance",
            "softMuon_pTrel",
            "softMuon_ip3dD0",
            "softMuon_ip3dZ0",
            "softMuon_ip3dD0Significance",
            "softMuon_ip3dZ0Significance",
            "softMuon_ip3dD0Uncertainty",
            "softMuon_ip3dZ0Uncertainty",
            "JetFitterFlip_energyFraction",
            "JetFitterFlip_mass",
            "JetFitterFlip_significance3d",
            "JetFitterFlip_deltaphi",
            "JetFitterFlip_deltaeta",
            "JetFitterFlip_massUncorr",
            "JetFitterFlip_dRFlightDir"
        ],
        "halves": [
            "DL1r20210824r22_pb",
            "DL1r20210824r22_pc",
            "DL1r20210824r22_pu",
            "dipsLoose20220314v2_pb",
            "dipsLoose20220314v2_pc",
            "dipsLoose20220314v2_pu",
            "DL1dv01_pu",
            "DL1dv01_pc",
            "DL1dv01_pb"
        ]
    },
    "event": {
	"customs" :  [
	    "primaryVertexDetectorZ"
	]
    }
}
