mc20_13TeV.425200.Pythia8EvtGen_A14NNPDF23LO_Gammatautau_MassWeight.deriv.DAOD_FTAG1.e5468_s3674_r13224_r13146_p5981
mc20_13TeV.425200.Pythia8EvtGen_A14NNPDF23LO_Gammatautau_MassWeight.deriv.DAOD_FTAG1.e5468_s3674_d1735_r13305_p5981	

mc23_13p6TeV.801002.Py8EG_A14NNPDF23LO_Gammatautau_MassWeight.deriv.DAOD_FTAG1.e8514_e8528_s4159_s4114_r15309_r15225_p5981	
mc23_13p6TeV.801002.Py8EG_A14NNPDF23LO_Gammatautau_MassWeight.deriv.DAOD_FTAG1.e8514_e8528_s4159_s4114_r14799_r14811_p5981	
mc23_13p6TeV.801002.Py8EG_A14NNPDF23LO_Gammatautau_MassWeight.deriv.DAOD_FTAG1.e8514_e8528_s4159_s4114_r15307_r15225_p5981	
mc23_13p6TeV.801002.Py8EG_A14NNPDF23LO_Gammatautau_MassWeight.deriv.DAOD_FTAG1.e8514_e8528_s4159_s4114_r15305_r15225_p5981	
mc23_13p6TeV.801002.Py8EG_A14NNPDF23LO_Gammatautau_MassWeight.deriv.DAOD_FTAG1.e8514_e8528_s4159_s4114_r15224_r15225_p5981	
mc23_13p6TeV.801002.Py8EG_A14NNPDF23LO_Gammatautau_MassWeight.deriv.DAOD_FTAG1.e8514_e8528_s4159_s4114_r15308_r15225_p5981	
mc23_13p6TeV.801002.Py8EG_A14NNPDF23LO_Gammatautau_MassWeight.deriv.DAOD_FTAG1.e8514_e8528_s4159_s4114_r15306_r15225_p5981	